^C:\USERS\SEIDY JIMÉNEZ\SOURCE\REPOS\MENUOPENGL\MENUOPENGL\DEBUG\COSTARICA.OBJ|C:\USERS\SEIDY JIMÉNEZ\SOURCE\REPOS\MENUOPENGL\MENUOPENGL\DEBUG\SCANLINE.OBJ|C:\USERS\SEIDY JIMÉNEZ\SOURCE\REPOS\MENUOPENGL\MENUOPENGL\DEBUG\STDAFX.OBJ
C:\USERS\SEIDY JIMéNEZ\SOURCE\REPOS\MENUOPENGL\DEBUG\MENUOPENGL.EXE
C:\USERS\SEIDY JIMéNEZ\SOURCE\REPOS\MENUOPENGL\DEBUG\MENUOPENGL.ILK
C:\USERS\SEIDY JIMÉNEZ\SOURCE\REPOS\MENUOPENGL\DEBUG\MENUOPENGL.PDB
^C:\USERS\SEIDY JIMÉNEZ\DOCUMENTS\ESTUDIOS\GRÁFICOS\RODRIGUEZJIMENEZ\RODRÍGUEZJIMÉNEZ\MENUOPENGL\DEBUG\COSTARICA.OBJ|C:\USERS\SEIDY JIMÉNEZ\DOCUMENTS\ESTUDIOS\GRÁFICOS\RODRIGUEZJIMENEZ\RODRÍGUEZJIMÉNEZ\MENUOPENGL\DEBUG\SCANLINE.OBJ|C:\USERS\SEIDY JIMÉNEZ\DOCUMENTS\ESTUDIOS\GRÁFICOS\RODRIGUEZJIMENEZ\RODRÍGUEZJIMÉNEZ\MENUOPENGL\DEBUG\STDAFX.OBJ
C:\USERS\SEIDY JIMéNEZ\DOCUMENTS\ESTUDIOS\GRáFICOS\RODRIGUEZJIMENEZ\RODRíGUEZJIMéNEZ\DEBUG\MENUOPENGL.EXE
C:\USERS\SEIDY JIMéNEZ\DOCUMENTS\ESTUDIOS\GRáFICOS\RODRIGUEZJIMENEZ\RODRíGUEZJIMéNEZ\DEBUG\MENUOPENGL.ILK
C:\USERS\SEIDY JIMÉNEZ\DOCUMENTS\ESTUDIOS\GRÁFICOS\RODRIGUEZJIMENEZ\RODRÍGUEZJIMÉNEZ\DEBUG\MENUOPENGL.PDB
